<?xml version="1.0"?>
<VTKFile type="UnstructuredGrid" version="2.2">
  <UnstructuredGrid>
    <Piece NumberOfPoints="121" NumberOfCells="200">
      <Points>
        <DataArray type="Float64" NumberOfComponents="3" format="ascii">0.9 0 0 1 0 0 1 0.1 0 0.9 0.1 0 0.8 0 0 1 0.2 0 0.8 0.1 0 0.9 0.2 0 0.7000000000000001 0 0 1 0.3 0 0.7000000000000001 0.1 0 0.8 0.2 0 0.9 0.3 0 0.6000000000000001 0 0 1 0.4 0 0.6000000000000001 0.1 0 0.7000000000000001 0.2 0 0.8 0.3 0 0.9 0.4 0 0.5 0 0 1 0.5 0 0.5 0.1 0 0.6000000000000001 0.2 0 0.7000000000000001 0.3 0 0.8 0.4 0 0.9 0.5 0 0.4 0 0 1 0.6000000000000001 0 0.4 0.1 0 0.5 0.2 0 0.6000000000000001 0.3 0 0.7000000000000001 0.4 0 0.8 0.5 0 0.9 0.6000000000000001 0 0.3 0 0 1 0.7000000000000001 0 0.3 0.1 0 0.4 0.2 0 0.5 0.3 0 0.6000000000000001 0.4 0 0.7000000000000001 0.5 0 0.8 0.6000000000000001 0 0.9 0.7000000000000001 0 0.2 0 0 1 0.8 0 0.2 0.1 0 0.3 0.2 0 0.4 0.3 0 0.5 0.4 0 0.6000000000000001 0.5 0 0.7000000000000001 0.6000000000000001 0 0.8 0.7000000000000001 0 0.9 0.8 0 0.1 0 0 1 0.9 0 0.1 0.1 0 0.2 0.2 0 0.3 0.3 0 0.4 0.4 0 0.5 0.5 0 0.6000000000000001 0.6000000000000001 0 0.7000000000000001 0.7000000000000001 0 0.8 0.8 0 0.9 0.9 0 0 0 0 0.9999999999999999 0.9999999999999999 0 0 0.1 0 0.1 0.2 0 0.2 0.3 0 0.3 0.4 0 0.4 0.5 0 0.5 0.6000000000000001 0 0.6000000000000001 0.7000000000000001 0 0.7000000000000001 0.8 0 0.8 0.9 0 0.8999999999999999 0.9999999999999999 0 0 0.2 0 0.1 0.3 0 0.2 0.4 0 0.3 0.5 0 0.4 0.6000000000000001 0 0.5 0.7000000000000001 0 0.6000000000000001 0.8 0 0.7000000000000001 0.9 0 0.7999999999999999 0.9999999999999999 0 0 0.3 0 0.1 0.4 0 0.2 0.5 0 0.3 0.6000000000000001 0 0.4 0.7000000000000001 0 0.5 0.8 0 0.6000000000000001 0.9 0 0.7 0.9999999999999999 0 0 0.4 0 0.1 0.5 0 0.2 0.6000000000000001 0 0.3 0.7000000000000001 0 0.4 0.8 0 0.5 0.9 0 0.6000000000000001 0.9999999999999999 0 0 0.5 0 0.1 0.6000000000000001 0 0.2 0.7000000000000001 0 0.3 0.8 0 0.4 0.9 0 0.4999999999999999 0.9999999999999999 0 0 0.6000000000000001 0 0.1 0.7000000000000001 0 0.2 0.8 0 0.3 0.9 0 0.4 0.9999999999999999 0 0 0.7000000000000001 0 0.1 0.8 0 0.2 0.9 0 0.3 0.9999999999999999 0 0 0.8 0 0.1 0.9 0 0.2 0.9999999999999999 0 0 0.9 0 0.1 0.9999999999999999 0 0 1 0 </DataArray>
      </Points>
      <Cells>
        <DataArray type="Int32" Name="connectivity" format="ascii">0 1 2 0 3 2 4 0 3 3 2 5 4 6 3 3 7 5 8 4 6 6 3 7 7 5 9 8 10 6 6 11 7 7 12 9 13 8 10 10 6 11 11 7 12 12 9 14 13 15 10 10 16 11 11 17 12 12 18 14 19 13 15 15 10 16 16 11 17 17 12 18 18 14 20 19 21 15 15 22 16 16 23 17 17 24 18 18 25 20 26 19 21 21 15 22 22 16 23 23 17 24 24 18 25 25 20 27 26 28 21 21 29 22 22 30 23 23 31 24 24 32 25 25 33 27 34 26 28 28 21 29 29 22 30 30 23 31 31 24 32 32 25 33 33 27 35 34 36 28 28 37 29 29 38 30 30 39 31 31 40 32 32 41 33 33 42 35 43 34 36 36 28 37 37 29 38 38 30 39 39 31 40 40 32 41 41 33 42 42 35 44 43 45 36 36 46 37 37 47 38 38 48 39 39 49 40 40 50 41 41 51 42 42 52 44 53 43 45 45 36 46 46 37 47 47 38 48 48 39 49 49 40 50 50 41 51 51 42 52 52 44 54 53 55 45 45 56 46 46 57 47 47 58 48 48 59 49 49 60 50 50 61 51 51 62 52 52 63 54 64 53 55 55 45 56 56 46 57 57 47 58 58 48 59 59 49 60 60 50 61 61 51 62 62 52 63 63 54 65 64 66 55 55 67 56 56 68 57 57 69 58 58 70 59 59 71 60 60 72 61 61 73 62 62 74 63 63 75 65 66 55 67 67 56 68 68 57 69 69 58 70 70 59 71 71 60 72 72 61 73 73 62 74 74 63 75 66 76 67 67 77 68 68 78 69 69 79 70 70 80 71 71 81 72 72 82 73 73 83 74 74 84 75 76 67 77 77 68 78 78 69 79 79 70 80 80 71 81 81 72 82 82 73 83 83 74 84 76 85 77 77 86 78 78 87 79 79 88 80 80 89 81 81 90 82 82 91 83 83 92 84 85 77 86 86 78 87 87 79 88 88 80 89 89 81 90 90 82 91 91 83 92 85 93 86 86 94 87 87 95 88 88 96 89 89 97 90 90 98 91 91 99 92 93 86 94 94 87 95 95 88 96 96 89 97 97 90 98 98 91 99 93 100 94 94 101 95 95 102 96 96 103 97 97 104 98 98 105 99 100 94 101 101 95 102 102 96 103 103 97 104 104 98 105 100 106 101 101 107 102 102 108 103 103 109 104 104 110 105 106 101 107 107 102 108 108 103 109 109 104 110 106 111 107 107 112 108 108 113 109 109 114 110 111 107 112 112 108 113 113 109 114 111 115 112 112 116 113 113 117 114 115 112 116 116 113 117 115 118 116 116 119 117 118 116 119 118 120 119 </DataArray>
        <DataArray type="Int32" Name="offsets" format="ascii">3 6 9 12 15 18 21 24 27 30 33 36 39 42 45 48 51 54 57 60 63 66 69 72 75 78 81 84 87 90 93 96 99 102 105 108 111 114 117 120 123 126 129 132 135 138 141 144 147 150 153 156 159 162 165 168 171 174 177 180 183 186 189 192 195 198 201 204 207 210 213 216 219 222 225 228 231 234 237 240 243 246 249 252 255 258 261 264 267 270 273 276 279 282 285 288 291 294 297 300 303 306 309 312 315 318 321 324 327 330 333 336 339 342 345 348 351 354 357 360 363 366 369 372 375 378 381 384 387 390 393 396 399 402 405 408 411 414 417 420 423 426 429 432 435 438 441 444 447 450 453 456 459 462 465 468 471 474 477 480 483 486 489 492 495 498 501 504 507 510 513 516 519 522 525 528 531 534 537 540 543 546 549 552 555 558 561 564 567 570 573 576 579 582 585 588 591 594 597 600 </DataArray>
        <DataArray type="Int8" Name="types" format="ascii">69 69 69 69 69 69 69 69 69 69 69 69 69 69 69 69 69 69 69 69 69 69 69 69 69 69 69 69 69 69 69 69 69 69 69 69 69 69 69 69 69 69 69 69 69 69 69 69 69 69 69 69 69 69 69 69 69 69 69 69 69 69 69 69 69 69 69 69 69 69 69 69 69 69 69 69 69 69 69 69 69 69 69 69 69 69 69 69 69 69 69 69 69 69 69 69 69 69 69 69 69 69 69 69 69 69 69 69 69 69 69 69 69 69 69 69 69 69 69 69 69 69 69 69 69 69 69 69 69 69 69 69 69 69 69 69 69 69 69 69 69 69 69 69 69 69 69 69 69 69 69 69 69 69 69 69 69 69 69 69 69 69 69 69 69 69 69 69 69 69 69 69 69 69 69 69 69 69 69 69 69 69 69 69 69 69 69 69 69 69 69 69 69 69 69 69 69 69 69 69 </DataArray>
      </Cells>
      <CellData>
        <DataArray type="UInt8" Name="vtkGhostType" format="ascii" RangeMin="0" RangeMax="1">0 0 0 0 0 0 0 0 0 0 0 0 0 0 0 0 0 0 0 0 0 0 0 0 0 0 0 0 0 0 0 0 0 0 0 0 0 0 0 0 0 0 0 0 0 0 0 0 0 0 0 0 0 0 0 0 0 0 0 0 0 0 0 0 0 0 0 0 0 0 0 0 0 0 0 0 0 0 0 0 0 0 0 0 0 0 0 0 0 0 0 0 0 0 0 0 0 0 0 0 0 0 0 0 0 0 0 0 0 0 0 0 0 0 0 0 0 0 0 0 0 0 0 0 0 0 0 0 0 0 0 0 0 0 0 0 0 0 0 0 0 0 0 0 0 0 0 0 0 0 0 0 0 0 0 0 0 0 0 0 0 0 0 0 0 0 0 0 0 0 0 0 0 0 0 0 0 0 0 0 0 0 0 0 0 0 0 0 0 0 0 0 0 0 0 0 0 0 0 0 </DataArray>
        <DataArray type="Int64" IdType="1" Name="vtkOriginalCellIds" format="ascii" RangeMin="0" RangeMax="199">0 1 2 3 4 5 6 7 8 9 10 11 12 13 14 15 16 17 18 19 20 21 22 23 24 25 26 27 28 29 30 31 32 33 34 35 36 37 38 39 40 41 42 43 44 45 46 47 48 49 50 51 52 53 54 55 56 57 58 59 60 61 62 63 64 65 66 67 68 69 70 71 72 73 74 75 76 77 78 79 80 81 82 83 84 85 86 87 88 89 90 91 92 93 94 95 96 97 98 99 100 101 102 103 104 105 106 107 108 109 110 111 112 113 114 115 116 117 118 119 120 121 122 123 124 125 126 127 128 129 130 131 132 133 134 135 136 137 138 139 140 141 142 143 144 145 146 147 148 149 150 151 152 153 154 155 156 157 158 159 160 161 162 163 164 165 166 167 168 169 170 171 172 173 174 175 176 177 178 179 180 181 182 183 184 185 186 187 188 189 190 191 192 193 194 195 196 197 198 199 </DataArray>
      </CellData>
      <PointData Vectors="f">
        <DataArray type="Int64" IdType="1" Name="vtkOriginalPointIds" format="ascii" RangeMin="0" RangeMax="120">0 1 2 3 4 5 6 7 8 9 10 11 12 13 14 15 16 17 18 19 20 21 22 23 24 25 26 27 28 29 30 31 32 33 34 35 36 37 38 39 40 41 42 43 44 45 46 47 48 49 50 51 52 53 54 55 56 57 58 59 60 61 62 63 64 65 66 67 68 69 70 71 72 73 74 75 76 77 78 79 80 81 82 83 84 85 86 87 88 89 90 91 92 93 94 95 96 97 98 99 100 101 102 103 104 105 106 107 108 109 110 111 112 113 114 115 116 117 118 119 120 </DataArray>
        <DataArray type="UInt8" Name="vtkGhostType" format="ascii" RangeMin="0" RangeMax="0">0 0 0 0 0 0 0 0 0 0 0 0 0 0 0 0 0 0 0 0 0 0 0 0 0 0 0 0 0 0 0 0 0 0 0 0 0 0 0 0 0 0 0 0 0 0 0 0 0 0 0 0 0 0 0 0 0 0 0 0 0 0 0 0 0 0 0 0 0 0 0 0 0 0 0 0 0 0 0 0 0 0 0 0 0 0 0 0 0 0 0 0 0 0 0 0 0 0 0 0 0 0 0 0 0 0 0 0 0 0 0 0 0 0 0 0 0 0 0 0 0 </DataArray>
        <DataArray type="Float64" Name="f" format="ascii" NumberOfComponents="3">0 0 0 0 0 0 0.04991230893618655 -0.004970850714600215 0 0.03995201640826244 -0.00499243474019729 0 0 0 0 0.09784358437773427 -0.01989983705936335 0 0.02995311252969322 -0.005010666299680678 0 0.07789054637691625 -0.01998049431067887 0 0 0 0 0.1417576676088739 -0.04481952892944643 0 0.01992235929423681 -0.005025494660575962 0 0.05786930206692844 -0.02004767897393532 0 0.1117880574417777 -0.04498781006433695 0 0 0 0 0.179637140192411 -0.07975395006886064 0 0.009866610588614046 -0.005036875049497495 0 0.03779347243703963 -0.02010120093590665 0 0.08172959936048503 -0.04512563618542194 0 0.1396355330152943 -0.08002953112965176 0 0 0 0 0.2094794482631377 -0.124718802150821 0 -0.0002071998881485591 -0.005044768849828264 0 0.01767684377118687 -0.02014089404434416 0 0.05160284723583866 -0.04523260760130038 0 0.09953330181268039 -0.08025074087909237 0 0.1594385722459469 -0.1251125734366657 0 0 0 0 0.2292930021348228 -0.179721713443581 0 -0.01029207105903145 -0.005049143773924455 0 -0.002466656760843367 -0.02016661684152647 0 0.02142857500342703 -0.04530837886019389 0 0.05935798405908348 -0.08041691843036869 0 0.1092940486212041 -0.125421074794362 0 0.169213464610697 -0.1802358936080528 0 0 0 0 0.2370932479905273 -0.2447625126423167 0 -0.0203809472045578 -0.005049974008485724 0 -0.0226229861359564 -0.02017825319430802 0 -0.008772260210030068 -0.04535266027387327 0 0.01913737342495879 -0.08052749981468771 0 0.0590804261256194 -0.125643351100774 0 0.1090358702301367 -0.1806268974732602 0 0.1669832361666702 -0.2453907881392531 0 0 0 0 0.2308987086598284 -0.3198335282913042 0 -0.03046673094472983 -0.005047240331917034 0 -0.04277801102679889 -0.02017571281569778 0 -0.03897855576821435 -0.04536521920528811 0 -0.02110052958523614 -0.08058202046423905 0 0.008832527312210563 -0.1257785992388378 0 0.04880178383822436 -0.1808934610760025 0 0.09678920917470721 -0.2458509705298211 0 0.1507736646237412 -0.3205612181334227 0 0 0 0 0.2087269905699916 -0.4049199140626741 0 -0.04054229641055532 -0.005040930202737904 0 -0.06291753375597731 -0.02015893167375886 0 -0.06916910185120667 -0.04534588110971349 0 -0.06132756790004592 -0.08058011726995534 0 -0.04141461320943325 -0.1258261716212996 0 -0.01144695652998349 -0.1810345398528033 0 0.02655973040462307 -0.2461414905690225 0 0.07058690963989173 -0.3210689072873842 0 0.1186092604832088 -0.4057241596986656 0 0 0 0 0.1685907542031586 -0.5 0 -0.1343657935106263 -0.09381462872315224 0 -0.1567753121606542 -0.09888116383869539 0 -0.1630769182512887 -0.1140427260981504 0 -0.1552964846166451 -0.1392866318206744 0 -0.1354507366646211 -0.1745863932257023 0 -0.1055511836308089 -0.2199014577624559 0 -0.06760804047936483 -0.2751769867673407 0 -0.02363414593031311 -0.3403436697374763 0 0.02435111782506798 -0.4153175703261616 0 0.07431789823593501 -0.5 0 -0.2410991697418213 -0.1781285369063573 0 -0.24743525783518 -0.1832220377891837 0 -0.2397025787202882 -0.1984261203225996 0 -0.2199129999519266 -0.2237233760894189 0 -0.1900729122571098 -0.2590823277239629 0 -0.1521871584713768 -0.304457176047078 0 -0.1082629570510275 -0.3597875849889469 0 -0.06031382570168857 -0.42499850056648 0 -0.01036351058722539 -0.5 0 -0.3221630618533761 -0.252845997405101 0 -0.3144636700174578 -0.2579664438512249 0 -0.2947181391982773 -0.2732105969366935 0 -0.2649278391533045 -0.2985561598084133 0 -0.227092331383061 -0.333966502545311 0 -0.1832132988008588 -0.3793904162201194 0 -0.1352984739688925 -0.4347619032099881 0 -0.08536557134216526 -0.5 0 -0.3795025837622906 -0.3178747782941777 0 -0.3597879150256978 -0.3230209334798202 0 -0.3300366989655773 -0.3383014635087609 0 -0.2922433131035353 -0.3636890197915509 0 -0.2484039957143558 -0.3991416566963037 0 -0.20052077934108 -0.4446025916583551 0 -0.1506054267675294 -0.5 0 -0.4150492453120097 -0.3731267098714283 0 -0.385325399112199 -0.3782962832127568 0 -0.3475650402282512 -0.3936084165846002 0 -0.3037590597929625 -0.4190305464990507 0 -0.2559038816689181 -0.4545152480118036 0 -0.2060054028202259 -0.5 0 -0.4307251466876412 -0.4185182357257209 0 -0.3929877606598814 -0.4237080444618763 0 -0.3492078204497405 -0.4390460903499392 0 -0.3013762391993151 -0.4644944317182259 0 -0.2514931401491877 -0.5 0 -0.4284471536311452 -0.4539709466720674 0 -0.3846850458315658 -0.4591770764731021 0 -0.3368717508418542 -0.4745345887579182 0 -0.2870017169252774 -0.5 0 -0.4101310549886225 -0.479412096433353 0 -0.3623298692574285 -0.484630061334365 0 -0.3124697624914083 -0.5 0 -0.3776957042644358 -0.494775098037338 0 -0.3278415613264928 -0.5 0 -0.3330671468505533 -0.5 0 </DataArray>
      </PointData>
    </Piece>
  </UnstructuredGrid>
</VTKFile>
